.Xil/Vivado-15804-DESKTOP-VHL3B3I/hw_ila_data_16/zip_work/waveform.vcd
$date
        2022-Sep-26 22:06:21
$end
$version
        Vivado v2019.2 (64-bit)
$end
$timescale
        1ps
$end
$scope module dut $end
$var reg 1 " protpg_inst/Y_data $end
$var reg 1 # protpg_inst/i_data_en_delay_4 $end
$var reg 1 $ protpg_inst/cor_data_1 $end
$var reg 1 % protpg_inst/cor_de_1 $end
$var reg 1 & protpg_inst/cor_data $end
$var reg 1 ' protpg_inst/cor_de $end
$var reg 1 ( _TRIGGER $end
$var reg 1 ) _WINDOW $end
$var reg 1 * _GAP $end
$upscope $end
$enddefinitions $end
#0
$dumpvars
0"
1#
0$
1%
0&
1'
0(
1)
0*
$end
#75
1"
#77
1$
#79
1&
#197
0"
#198
1"
#317
0"
#321
0$
#325
0&
#936
0#
#938
0%
#940
0'
#1306
1#
#1308
1%
#1310
1'
#1725
1"
#1727
1$
#1729
1&
#1957
0"
#1958
1"
#1959
0"
#1960
1"
#1967
0"
#1971
0$
#1975
0&
#2586
0#
#2588
0%
#2590
0'
#2956
1#
#2958
1%
#2960
1'
#3375
1"
#3377
1$
#3379
1&
#3615
0"
#3616
1"
#3617
0"
#3621
0$
#3625
0&
#4236
0#
#4238
0%
#4240
0'
#4606
1#
#4608
1%
#4610
1'
#5026
1"
#5027
1$
#5029
1&
#5265
0"
#5271
0$
#5275
0&
#5886
0#
#5888
0%
#5890
0'
#6256
1#
#6258
1%
#6260
1'
#6677
1"
1$
#6679
1&
#6905
0"
#6906
1"
#6915
0"
#6921
0$
#6925
0&
#7536
0#
#7538
0%
#7540
0'
#7906
1#
#7908
1%
#7910
1'
#8192
1(
#8327
1"
#8328
1$
#8329
1&
#8553
0"
#8554
1"
#8555
0"
#8556
1"
#8565
0"
#8569
0$
#8575
0&
#9186
0#
#9188
0%
#9190
0'
#9556
1#
#9558
1%
#9560
1'
#9977
1"
#9979
1$
1&
#10205
0"
#10206
1"
#10215
0"
#10219
0$
#10225
0&
#10836
0#
#10838
0%
#10840
0'
#11206
1#
#11208
1%
#11210
1'
#11627
1"
#11629
1$
#11630
1&
#11853
0"
#11854
1"
#11855
0"
#11856
1"
#11857
0"
#11858
1"
#11864
0"
#11869
0$
#11873
0&
#12486
0#
#12488
0%
#12490
0'
#12856
1#
#12858
1%
#12860
1'
#13279
1"
1$
#13281
1&
#13513
0"
#13519
0$
#13523
0&
#14136
0#
#14138
0%
#14140
0'
#14506
1#
#14508
1%
#14510
1'
#14929
1"
1$
#14931
1&
#15153
0"
#15154
1"
#15163
0"
#15168
0$
#15173
0&
#15786
0#
#15788
0%
#15790
0'
#16156
1#
#16158
1%
#16160
1'
