.Xil/Vivado-8440-DESKTOP-JC3SL1L/hw_ila_data_2/zip_work/waveform.vcd
$date
        2022-Nov-05 18:17:17
$end
$version
        Vivado v2019.2 (64-bit)
$end
$timescale
        1ps
$end
$scope module dut $end
$var reg 24 " protpg_inst/data_in [23:0] $end
$var reg 9 : protpg_inst/hsv_h [8:0] $end
$var reg 8 C protpg_inst/hsv_s [7:0] $end
$var reg 8 K protpg_inst/hsv_v [7:0] $end
$var reg 1 S _TRIGGER $end
$var reg 1 T _WINDOW $end
$var reg 1 U _GAP $end
$upscope $end
$enddefinitions $end
#0
$dumpvars
b110000001100000011000000 "
b0 :
b0 C
b11000000 K
0S
1T
0U
$end
#20
b110000001011110011000000 "
#22
b1 C
#23
b100101100 :
#27
b110000001100000011000000 "
#29
b110000001100010011000000 "
b0 C
#30
b110000001100000011000000 "
b0 :
#31
b101110001100010011000000 "
b110 C
#32
b1111000 :
b0 C
b11000101 K
#33
b110000001100000011000000 "
b0 :
b111 C
b11000000 K
#34
b10000010 :
b11000101 K
#35
b0 C
#36
b0 :
b11000000 K
#45
b110000001100010011000000 "
#47
b110000001100000011000000 "
b110 C
#48
b1111000 :
b11000101 K
#49
b110000001100010011000000 "
b0 C
#50
b0 :
b11000000 K
#51
b110000001100000011000000 "
b110 C
#52
b1111000 :
b11000101 K
#53
b110000001100000011001000 "
b0 C
#54
b110000001100000011000000 "
b0 :
b11000000 K
#55
b110000001011110011000000 "
b1011 C
#56
b101110001011100010111000 "
b11110000 :
b0 C
b11001001 K
#57
b101100001011100010110000 "
b0 :
b1 C
b11000000 K
#58
b101100001011010010101000 "
b100101100 :
b110 C
#59
b101 C
b10111111 K
#60
b1111000 :
b1100 C
b10111010 K
#61
b101110001011010010101000 "
b110101 :
b10110110 K
#62
b101110001011100010101000 "
#63
b101100001011100010101000 "
b11000 C
#64
b11010 :
b10111111 K
#65
b101110001011100010110000 "
b101011 :
b10001 C
#66
b1001111 :
b10111010 K
#67
b101110001011010010110000 "
b1100 C
#68
b11010 :
b10111111 K
#69
b101100001011010010110000 "
b1101 C
#70
b101100001011000010110000 "
b101100010 :
#71
b101100001011000010101000 "
b1 C
#72
b100101100 :
b1000 C
b10110110 K
#73
b101110001011010010101000 "
b1100 C
#74
b101110001011100010101000 "
b10100 :
#75
b101110001011010010101000 "
b11000 C
#76
b11010 :
b10111111 K
#77
b101110001011100010110000 "
b101011 :
#78
b11010 :
#79
b101100001011100010110000 "
b1100 C
#81
b101100001011110010110000 "
b101 C
#82
b1111000 :
b10111010 K
#83
b101100001011100010110000 "
b1100 C
#84
b10111111 K
#85
b101110001011100010111000 "
b101 C
#86
b10111010 K
#87
b101110001011110010111000 "
b110 C
#88
b100101100 :
b10111111 K
#89
b101110001011100010111000 "
b0 C
#90
b101110001011100010110000 "
b0 :
#91
b110 C
#92
b100101100 :
b1100 C
#93
b11010 :
#99
b101110001011110010110000 "
#101
b101110001011110010101000 "
#102
b111100 :
#103
b11000 C
#105
b101110001011100010110000 "
#106
b101110001011110010110000 "
#107
b1100 C
#108
b11010 :
#109
b111100 :
#113
b101110001011100010111000 "
#114
b101110001011100010110000 "
#115
b110 C
#116
b100101100 :
b1100 C
#117
b101110001011110010110000 "
b11010 :
#120
b111100 :
#121
b101110001100000010110000 "
#123
b1101 C
#124
b1000010 :
b11000000 K
#125
b101110001011110010111000 "
#127
b0 C
#128
b0 :
b10111111 K
#131
b101110001011100010110000 "
#133
b101110001011110010110000 "
b1100 C
#134
b101110001011110010111000 "
b11010 :
#135
b101110001011110010110000 "
#136
b111100 :
b0 C
#137
b101110001100000010110000 "
b0 :
b1100 C
#138
b111100 :
#139
b1101 C
#140
b1000010 :
b11000000 K
#143
b101110001011110010110000 "
#145
b1100 C
#146
b111100 :
b10111111 K
#148
b101110001100000010110000 "
#150
b1101 C
#151
b1000010 :
b11000000 K
#157
b101110001011110010110000 "
#159
b1100 C
#160
b111100 :
b10111111 K
#161
b101110001100000010111000 "
#162
b101110001011110010111000 "
#163
b101100001011110010110000 "
b1 C
#164
b1111000 :
b0 C
b11000000 K
#165
b101110001011110010110000 "
b0 :
b1100 C
b10111111 K
#166
b1111000 :
#168
b111100 :
#169
b101110001100000010110000 "
#171
b1101 C
#172
b1000010 :
b11000000 K
#173
b101110001011110010110000 "
#175
b1100 C
#176
b111100 :
b10111111 K
#177
b101110001100000010111000 "
#179
b1 C
#180
b1111000 :
b11000000 K
#181
b101110001100000010110000 "
#183
b101110001011110010110000 "
b1101 C
#184
b1000010 :
#185
b101110001100000010110000 "
b1100 C
#186
b111100 :
b10111111 K
#187
b1101 C
#188
b1000010 :
b11000000 K
#191
b101110001011110010110000 "
#193
b101110001011110010111000 "
b1100 C
#194
b111100 :
b10111111 K
#195
b101110001100000010110000 "
b0 C
#196
b0 :
#197
b1101 C
#198
b1000010 :
b11000000 K
#202
b101110001011110010110000 "
#203
b101110001100000010111000 "
#204
b1100 C
#205
b111100 :
b1 C
b10111111 K
#206
b1111000 :
b11000000 K
#207
b101110001100000010110000 "
#209
b1101 C
#210
b1000010 :
#212
b101110001100000010111000 "
#214
b1 C
#215
b101110001100010010110000 "
b1111000 :
#217
b101110001100000010111000 "
b10011 C
#218
b1010100 :
b11000101 K
#219
b1 C
#220
b1111000 :
b11000000 K
#221
b101110001100000010110000 "
#222
b101110001100010010110000 "
#223
b1101 C
#224
b1000010 :
b10011 C
#225
b1010100 :
b11000101 K
#231
b101110001100010010111000 "
#233
b111 C
#234
b1111000 :
#236
b101110001100000010111000 "
#237
b101110001100010010110000 "
#238
b1 C
#239
b10011 C
b11000000 K
#240
b1010100 :
b11000101 K
#241
b101110001100000010110000 "
#243
b101100001011110010101000 "
b1101 C
#244
b101100001011100010101000 "
b1000010 :
b11000000 K
#245
b101100001011100010100000 "
b11000 C
#246
b1011010 :
b10001 C
b10111111 K
#247
b101100001011010010101000 "
b1001111 :
b11110 C
b10111010 K
#248
b1000111 :
#249
b101100001011100010101000 "
b1100 C
#250
b101110001011110010101000 "
b110101 :
b10110110 K
#251
b101110001100000010110000 "
b10001 C
#252
b1001111 :
b11000 C
b10111010 K
#253
b111100 :
b1101 C
b10111111 K
#254
b1000010 :
b11000000 K
#257
b101110001011110010110000 "
#259
b101110001011110010111000 "
b1100 C
#260
b101110001100000010111000 "
b111100 :
b10111111 K
#261
b110000001100010011000000 "
b0 C
#262
b110000001100100011000000 "
b0 :
b1 C
#263
b110000001100110011001000 "
b1111000 :
b110 C
b11000000 K
#264
b1100 C
b11000101 K
#265
b110000001101000011001000 "
b10010 C
b11001010 K
#266
b10011100 :
b11001111 K
#267
b110010001101000011001000 "
b10011 C
#268
b10011001 :
b11010000 K
#269
b110000001101000011010000 "
b1000 C
#270
b1111000 :
#271
b110010001101000011010000 "
b10101 C
#272
b10111011 :
b11010010 K
#273
b110010001101000011001000 "
b1010 C
#274
b11000010 :
#275
b1000 C
#276
b1111000 :
b11010000 K
#279
b110000001101000011001000 "
#280
b110010001101010011001000 "
#281
b110010001101000011001000 "
b10011 C
#282
b110010001101010011001000 "
b10011001 :
b1110 C
#283
b110000001101000011001000 "
b1111000 :
b1000 C
b11010101 K
#284
b110000001101010011001000 "
b1110 C
b11010000 K
#285
b10011 C
b11010101 K
#286
b10011001 :
b11001 C
b11010000 K
#287
b10010001 :
b11010101 K
#291
b110010001101000011001000 "
#292
b110000001101000011001000 "
#293
b110010001101000011001000 "
b1000 C
#294
b110000001101000011001000 "
b1111000 :
b10011 C
b11010000 K
#295
b10011001 :
b1000 C
#296
b1111000 :
b10011 C
#297
b110010001101000011001000 "
b10011001 :
#298
b110010001101010011001000 "
#299
b1000 C
#300
b110000001101010011001000 "
b1111000 :
b1110 C
#301
b11010101 K
#302
b11001 C
#303
b110000001101000011010000 "
b10010001 :
#304
b110010001101000011010000 "
#305
b10101 C
#306
b110010001101000011001000 "
b10111011 :
b1010 C
b11010010 K
#307
b11000010 :
#308
b1000 C
#309
b1111000 :
b11010000 K
#311
b110000001101000011001000 "
#312
b110000001101000011010000 "
#313
b110010001101000011001000 "
b10011 C
#314
b110010001101000011010000 "
b10011001 :
b10101 C
#315
b110010001101000011001000 "
b10111011 :
b1000 C
b11010010 K
#316
b1111000 :
b1010 C
b11010000 K
#317
b110000001101010011001000 "
b11000010 :
b1000 C
b11010010 K
#318
b1111000 :
b11010000 K
#319
b11001 C
#320
b10010001 :
b11010101 K
#321
b110010001101010011001000 "
#322
b110000001101000011001000 "
#323
b1110 C
#324
b1111000 :
b10011 C
#325
b10011001 :
b11010000 K
#327
b110010001101000011001000 "
#329
b1000 C
#330
b1111000 :
#331
b110000001101000011001000 "
#333
b110010001101000011001000 "
b10011 C
#334
b10011001 :
#335
b110000001101000011001000 "
b1000 C
#336
b1111000 :
#337
b110000001101010011001000 "
b10011 C
#338
b110000001101000011001000 "
b10011001 :
#339
b110000001101010011001000 "
b11001 C
#340
b10010001 :
b10011 C
b11010101 K
#341
b10011001 :
b11001 C
b11010000 K
#342
b10010001 :
b11010101 K
#347
b110010001101000011010000 "
#349
b110000001101010011001000 "
b1010 C
#350
b11000010 :
b11010010 K
#351
b11001 C
#352
b10010001 :
b11010101 K
#355
b110010001101010011001000 "
#357
b1110 C
#358
b1111000 :
#359
b110000001101010011001000 "
#361
b110000001101000011010000 "
b11001 C
#362
b10010001 :
#363
b10101 C
#364
b10111011 :
b11010010 K
#366
b110000001101010011010000 "
#367
b110000001101010011001000 "
#368
b11001 C
#369
b110000001101100011001000 "
b10101011 :
b11010101 K
#370
b10010001 :
#371
b11110 C
#372
b10001100 :
b11011010 K
#373
b110000001101010011001000 "
#375
b11001 C
#376
b10010001 :
b11010101 K
#378
b101110001101010011001000 "
#379
b110000001101000011001000 "
#380
b101100001100010010111000 "
b11010 C
#381
b101110001100010011000000 "
b10010011 :
b10011 C
#382
b101110001100100011000000 "
b10011001 :
b11010000 K
#383
b110000001100100011000000 "
b10011100 :
b111 C
b11000101 K
#384
b110000001100110011001000 "
b10000010 :
b1101 C
#385
b110000001101000011001000 "
b1111101 :
b1100 C
b11001010 K
#386
b1111000 :
b10010 C
#387
b110000001101010011001000 "
b10011100 :
b10011 C
b11001111 K
#388
b110000001101100011001000 "
b10011001 :
b11010000 K
#389
b110000001101010011001000 "
b11001 C
#390
b10010001 :
b11110 C
b11010101 K
#391
b10001100 :
b11001 C
b11011010 K
#392
b10010001 :
b11010101 K
#397
b110000001101100011001000 "
#399
b110000001101010011001000 "
b11110 C
#400
b10001100 :
b11011010 K
#401
b11001 C
#402
b10010001 :
b11010101 K
#403
b110000001101000011001000 "
#405
b110000001101010011001000 "
b10011 C
#406
b10011001 :
b11010000 K
#407
b110000001101010011000000 "
b11001 C
#408
b110000001101100011000000 "
b10010001 :
b11010101 K
#409
b110000001101010011001000 "
#410
b1111000 :
b11110 C
#411
b11001 C
b11011010 K
#412
b10010001 :
b11010101 K
#417
b101110001101010011001000 "
#419
b110000001101010011010000 "
b11010 C
#420
b10010011 :
#421
b110000001101000011010000 "
b11001 C
#422
b10101011 :
#423
b110000001101010011001000 "
b10101 C
#424
b10111011 :
b11010010 K
#425
b110000001101000011001000 "
b11001 C
#426
b10010001 :
b11010101 K
#427
b10011 C
#428
b10011001 :
b11010000 K
#429
b101110001101010011001000 "
#431
b11010 C
#432
b10010011 :
b11010101 K
#433
b110000001101010011001000 "
#435
b11001 C
#436
b10010001 :
#439
b110000001101000011001000 "
#441
b10011 C
#442
b10011001 :
b11010000 K
#443
b110000001101010011001000 "
#445
b110000001101010011000000 "
b11001 C
#446
b110000001101000011000000 "
b10010001 :
b11010101 K
#447
b110000001101000011001000 "
#448
b1111000 :
b10011 C
#449
b110000001101010011001000 "
b11010000 K
#450
b101010001011100010101000 "
b10011001 :
#451
b100010001001110010001000 "
b11001 C
#452
b11010001000000001101000 "
b10010001 :
b10001 C
b11010101 K
#453
b11010000111010001001000 "
b1111000 :
b100011 C
b10111010 K
#454
b11000000110010000111000 "
b100110 C
b10011111 K
#455
b11100000110110000111000 "
b1100000 C
b10000000 K
#456
b11010000110110000111000 "
b1000111 :
b1110101 K
#457
b11100000110110000111000 "
b111110 :
b1110111 C
b1100101 K
#458
b110100 :
b1101110 C
b1110110 K
#459
b11100000110110000110000 "
b111111 :
b1110111 C
b1101111 K
#460
b110100 :
b1110110 K
#461
b11100000111000000110000 "
b10001010 C
#462
b11100000111000000111000 "
b110101 :
#464
b110110 :
b1110111 C
#465
b11100000111000000110000 "
b110101 :
#466
b11100000110110000110000 "
#467
b11100000110100000110000 "
b10001010 C
#468
b11100000110010000101000 "
b110110 :
#469
b11010000110010000110000 "
b110101 :
#470
b11010000110000000110000 "
b110000 :
b10011110 C
#471
b11010000101110000110000 "
b101110 :
b10000001 C
#472
b110011 :
b1101101 K
#473
b11000000101100000110000 "
b101101 :
#474
b11000000101010000101000 "
b101100 :
#475
b10110000101000000110000 "
b1110101 C
#476
b10110000101000000101000 "
b101110 :
b10001100 C
b1100100 K
#477
b11000000100110000110000 "
b101011 :
b1101000 C
#478
b101010 :
b10000001 C
b1011011 K
#479
b10100000100010000101000 "
b101101 :
b1110101 C
#480
b11000000101100000111000 "
b100000 :
b1100100 K
#481
b11010000111010001011000 "
b1110011 C
#482
b100100001010000010000000 "
b100110 :
b1011110 C
b1010010 K
#483
b101000001011110010101000 "
b101011 :
b111000 C
b1100100 K
#484
b101100001101010011000000 "
b1001111 :
b110011 C
b1110101 K
#485
b101110001100110011000000 "
b1010111 :
b100100 C
b10100000 K
#486
b10001100 :
b100101 C
b10111111 K
#487
b101110001101000011001000 "
b10001011 :
b10011 C
b11010101 K
#488
b110000001101000011001000 "
b1111011 :
b11001111 K
#489
b10100 C
#490
b101110001101000011001000 "
b10011011 :
b10011 C
b11010000 K
#491
b110010001101010011001000 "
b10011001 :
#492
b101110001100010010111000 "
b10100 C
#493
b101000001010100010101000 "
b10011011 :
b1110 C
#494
b100000001000100010001000 "
b1111000 :
b111 C
b11010101 K
#495
b11110001000010001111000 "
b1101 C
b11000101 K
#496
b100110001001110010010000 "
b11001000 :
b10010 C
b10101101 K
#497
b101100001100010010110000 "
b10101110 :
b1011 C
b10001010 K
#498
b101110001100110010111000 "
b1111000 :
b10100 C
b10000101 K
#499
b101110001100110011000000 "
b1001111 :
b10011 C
b10011111 K
#500
b1111000 :
b11000101 K
#501
b110000001101010011001000 "
b11001111 K
#502
b101100001100010010111000 "
b1111011 :
#503
b100110001010100010011000 "
b11001 C
#504
b11100000111110001101000 "
b10010001 :
b10011 C
b11010101 K
#505
b10010000101100001000000 "
b10011100 :
b10110 C
b11000101 K
#506
b10010000110000001001000 "
b1111000 :
b100100 C
b10101010 K
#507
b11110001000100001110000 "
b1011010 :
b1001001 C
b1111111 K
#508
b100110001010100010010000 "
b1100100 :
b111101 C
b1011010 K
#509
b101100001100010010111000 "
b1111000 :
b100101 C
b1100000 K
#510
b110000001101000011000000 "
b1011101 :
b100100 C
b10001010 K
#511
b101110001101000011001000 "
b1100010 :
b10011 C
b10101010 K
#512
b10011100 :
b11000101 K
#513
b110000001101010011001000 "
b1111000 :
b10100 C
b11010000 K
#514
b10011011 :
#515
b11001 C
#516
b10010001 :
b11010101 K
#519
b110000001101100011001000 "
#521
b110000001101010011001000 "
b11110 C
#522
b10001100 :
b11011010 K
#523
b110010001101000011010000 "
b11001 C
#524
b10010001 :
b11010101 K
#525
b110010001101010011001000 "
b1010 C
#526
b11000010 :
b11010010 K
#527
b1110 C
#528
b1111000 :
b11010101 K
#529
b110000001101100011001000 "
#531
b11110 C
#532
b101110001101100011001000 "
b10001100 :
b11011010 K
#533
b110000001101100011001000 "
#534
b11111 C
#535
b10001110 :
b11110 C
#536
b110000001101010011001000 "
b10001100 :
#538
b11001 C
#539
b10010001 :
b11010101 K
#540
b110000001101100011001000 "
#541
b110010001101100011001000 "
#542
b110010001101010011001000 "
b11110 C
#543
b10001100 :
b10011 C
b11011010 K
#544
b1111000 :
b1110 C
#545
b110000001101010011001000 "
b11010101 K
#547
b11001 C
#548
b10010001 :
#557
b110000001101100011001000 "
#558
b110000001101010011001000 "
#559
b110000001101100011001000 "
b11110 C
#560
b110000001101010011001000 "
b10001100 :
b11001 C
b11011010 K
#561
b10010001 :
b11110 C
b11010101 K
#562
b10001100 :
b11001 C
b11011010 K
#563
b10010001 :
b11010101 K
#577
b110010001101010011001000 "
#579
b1110 C
#580
b1111000 :
#583
b110000001101010011001000 "
#584
b110000001101100011001000 "
#585
b11001 C
#586
b10010001 :
b11110 C
#587
b10001100 :
b11011010 K
#588
b110000001101010011001000 "
#589
b110010001101010011001000 "
#590
b11001 C
#591
b10010001 :
b1110 C
b11010101 K
#592
b1111000 :
#593
b110010001101100011001000 "
#595
b110000001101010011001000 "
b10011 C
#596
b11011010 K
#597
b110010001101010011001000 "
b11001 C
#598
b10010001 :
b11010101 K
#599
b110010001101010011010000 "
b1110 C
#600
b110010001101000011010000 "
b1111000 :
#601
b110000001101010011001000 "
#602
b10100101 :
b1010 C
#603
b11000010 :
b11001 C
b11010010 K
#604
b10010001 :
b11010101 K
#619
b110010001101010011001000 "
#621
b1110 C
#622
b1111000 :
#626
b110000001101010011001000 "
#627
b110010001101000011010000 "
#628
b11001 C
#629
b110010001101010011001000 "
b10010001 :
b1010 C
#630
b11000010 :
b11010010 K
#631
b1110 C
#632
b1111000 :
b11010101 K
#634
b110100001101010011001000 "
#635
b110010001101010011001000 "
#637
b1001011 :
#638
b1111000 :
#643
b110000001101010011001000 "
#645
b11001 C
#646
b10010001 :
#651
b110000001101000011001000 "
#653
b10011 C
#654
b10011001 :
b11010000 K
#655
b110000001101010011001000 "
#657
b110010001101010011001000 "
b11001 C
#658
b10010001 :
b11010101 K
#659
b1110 C
#660
b110010001101000011001000 "
b1111000 :
#662
b1000 C
#663
b11010000 K
#665
b110000001101000011001000 "
#667
b110000001101010011001000 "
b10011 C
#668
b10011001 :
#669
b110010001101010011000000 "
b11001 C
#670
b10010001 :
b11010101 K
#671
b110010001101010011001000 "
#672
b1011111 :
#673
b110010001101000011001000 "
b1110 C
#674
b110010001101010011001000 "
b1111000 :
#675
b1000 C
#676
b110010001101000011001000 "
b1110 C
b11010000 K
#677
b110000001101000011001000 "
b11010101 K
#678
b1000 C
#679
b10011 C
b11010000 K
#680
b10011001 :
#681
b110010001101000011001000 "
#683
b1000 C
#684
b1111000 :
#685
b110000001101010011001000 "
#687
b110000001101000011001000 "
b11001 C
#688
b10010001 :
b11010101 K
#689
b10011 C
#690
b110000001101000011010000 "
b10011001 :
b11010000 K
#691
b110000001101000011001000 "
#692
b10101 C
#693
b110010001101000011001000 "
b10111011 :
b10011 C
b11010010 K
#694
b10011001 :
b11010000 K
#695
b1000 C
#696
b1111000 :
#699
b110000001101000011001000 "
#700
b110000001101010011001000 "
#701
b10011 C
#702
b10011001 :
b11001 C
#703
b10010001 :
b11010101 K
#705
b110010001101010011001000 "
#706
b110000001101000011001000 "
#707
b110010001101000011001000 "
b1110 C
#708
b1111000 :
b10011 C
#709
b10011001 :
b1000 C
b11010000 K
#710
b1111000 :
#711
b110000001101000011001000 "
#713
b110010001101000011001000 "
b10011 C
#714
b110010001101010011001000 "
b10011001 :
#715
b110010001101000011001000 "
b1000 C
#716
b110010001101010011001000 "
b1111000 :
b1110 C
#717
b110010001101000011001000 "
b1000 C
b11010101 K
#718
b1110 C
b11010000 K
#719
b110000001101000011001000 "
b1000 C
b11010101 K
#720
b11010000 K
#721
b110010001101000011001000 "
b10011 C
#722
b110010001101010011001000 "
b10011001 :
#723
b110010001101000011001000 "
b1000 C
#724
b1111000 :
b1110 C
#725
b1000 C
b11010101 K
#726
b11010000 K
#729
b110010001101010011001000 "
#731
b1110 C
#732
b110010001101000011001000 "
b11010101 K
#733
b110010001101000011010000 "
#734
b1000 C
#735
b110000001101000011001000 "
b1010 C
b11010000 K
#736
b11000010 :
b11010010 K
#737
b110000001101010011001000 "
b10011 C
#738
b10011001 :
b11010000 K
#739
b110000001101000011001000 "
b11001 C
#740
b10010001 :
b11010101 K
#741
b110000001101010011001000 "
b10011 C
#742
b10011001 :
b11010000 K
#743
b110000001101000011001000 "
b11001 C
#744
b10010001 :
b11010101 K
#745
b110010001101000011001000 "
b10011 C
#746
b10011001 :
b11010000 K
#747
b1000 C
#748
b1111000 :
#749
b110010001101000011010000 "
#751
b1010 C
#752
b11000010 :
b11010010 K
#753
b110010001101000011001000 "
#755
b1000 C
#756
b1111000 :
b11010000 K
#757
b110010001100110011001000 "
#759
b110010001101000011001000 "
b111 C
#760
b11001111 K
#761
b1000 C
#762
b11010000 K
#763
b110000001101000011001000 "
#764
b110010001101000011001000 "
#765
b10011 C
#766
b10011001 :
b1000 C
#767
b110010001101000011010000 "
b1111000 :
#768
b110010001100110011001000 "
#769
b110010001100110011010000 "
b1010 C
#770
b11000010 :
b111 C
b11010010 K
#771
b110010001100110011001000 "
b1111000 :
b1010 C
b11001111 K
#772
b110010001101000011010000 "
b11001000 :
b11010010 K
#773
b110010001101000011001000 "
b111 C
#774
b1111000 :
b1010 C
b11001111 K
#775
b11000010 :
b1000 C
b11010010 K
#776
b1111000 :
b11010000 K
#779
b110000001101000011001000 "
#781
b10011 C
#782
b10011001 :
#783
b110010001101000011001000 "
#785
b1000 C
#786
b1111000 :
#790
b110010001101000011010000 "
#792
b1010 C
#793
b110010001100110011001000 "
b11000010 :
b11010010 K
#795
b110010001101000011001000 "
b111 C
#796
b1111000 :
b11001111 K
#797
b110010001100110011001000 "
b1000 C
#798
b11010000 K
#799
b110010001100110011010000 "
b111 C
#800
b11001111 K
#801
b110010001100110011001000 "
b1010 C
#802
b11001000 :
b11010010 K
#803
b111 C
#804
b1111000 :
b11001111 K
#813
b110000001101000011001000 "
#815
b10011 C
#816
b10011001 :
b11010000 K
#817
b110010001100110011001000 "
#819
b111 C
#820
b1111000 :
b11001111 K
#831
b110000001100110011001000 "
#833
b110010001100110011010000 "
b10010 C
#834
b110000001100110011001000 "
b10011100 :
#835
b1010 C
#836
b11001000 :
b10010 C
b11010010 K
#837
b110000001101000011001000 "
b10011100 :
b11001111 K
#839
b110000001100110011001000 "
b10011 C
#840
b110000001101000011001000 "
b10011001 :
b11010000 K
#841
b110010001100110011001000 "
b10010 C
#842
b10011100 :
b10011 C
b11001111 K
#843
b10011001 :
b111 C
b11010000 K
#844
b1111000 :
b11001111 K
#845
b110010001100100011010000 "
#847
b110010001100100011001000 "
b1010 C
#848
b11101010 :
b11010010 K
#849
b1 C
#850
b1111000 :
b11001010 K
#851
b110010001100110011001000 "
#853
b110000001100110011001000 "
b111 C
#854
b11001111 K
#855
b10010 C
#856
b10011100 :
#857
b110000001100100011001000 "
#859
b110010001100100011001000 "
b1100 C
#860
b10101110 :
b11001010 K
#861
b1 C
#862
b1111000 :
#863
b110010001100110011001000 "
#865
b110000001100110011001000 "
b111 C
#866
b11001111 K
#867
b10010 C
#868
b10011100 :
#871
b110010001100110011001000 "
#873
b110000001100110011001000 "
b111 C
#874
b110000001100100011001000 "
b1111000 :
#875
b110010001100100011001000 "
b10010 C
#876
b110000001100100011001000 "
b10011100 :
b1100 C
#877
b10101110 :
b1 C
b11001010 K
#878
b110010001100100011001000 "
b1111000 :
b1100 C
#879
b110000001100100011001000 "
b10101110 :
#880
b1 C
#881
b110010001100110011001000 "
b1111000 :
b1100 C
#882
b10101110 :
#883
b110000001100100011001000 "
b111 C
#884
b1111000 :
b11001111 K
#885
b1100 C
#886
b10101110 :
b11001010 K
#893
b110010001100100011001000 "
#895
b1 C
#896
b1111000 :
#901
b110000001100100011001000 "
#903
b1100 C
#904
b10101110 :
#905
b110000001100010011000000 "
#907
b110 C
#908
b101110001100000011000000 "
b1111000 :
b11000101 K
#910
b1 C
#911
b101110001011110011000000 "
b10110100 :
b11000000 K
#914
b101010001010100010101000 "
b11110000 :
#915
b101000001001100010011000 "
#916
b100100001000110010010000 "
b100 C
#917
b100010001000110010000000 "
b100101100 :
b1111 C
b10101101 K
#918
b101100010 :
b101 C
b10100100 K
#919
b100101100 :
b11010 C
b10010010 K
#920
b100010001000110010001000 "
b1010100 :
b10001111 K
#921
b100000001000110010000000 "
#922
b1010 C
#923
b100010001000110010001000 "
b1111000 :
b11010 C
#924
b100000001000100010000000 "
#925
b100000001000100010001000 "
b1010 C
#926
b10010 C
#927
b100000001000010010000000 "
b10001010 K
#928
b10101110 :
#929
b100000001000000010000000 "
b1001 C
#930
b100000001000010010000000 "
b1111000 :
b10000101 K
#931
b0 C
#932
b0 :
b1001 C
b10000000 K
#933
b11110001000100010000000 "
b1111000 :
b10000101 K
#934
b100000001000100010000000 "
#935
b11110001000100010000000 "
b10100 C
#936
b1111101 :
b10010 C
b10001010 K
#937
b100000001000010010000000 "
b1111000 :
b10100 C
#938
b1111101 :
#939
b100000001000010001111000 "
b1001 C
#940
b11110001000000001110000 "
b1111000 :
b10000101 K
#941
b11100000111100001110000 "
b1011 C
#942
b11010000111000001101000 "
b1101110 :
b10100 C
#943
b11010000110100001101000 "
b1000010 :
b1000 C
b10000000 K
#944
b11010000110010001101000 "
b1111000 :
b110 C
b1111010 K
#945
b10110000110000001101000 "
b111 C
b1110000 K
#946
b11000000110010001101000 "
b100101100 :
b10010 C
b1101101 K
#947
b10110000110100001101000 "
b101010 C
#948
b11000000110100001101000 "
b11100000 :
b10101 C
#949
b11000000110110001101000 "
b11101010 :
b101010 C
#950
b10111110 :
b10101 C
#951
b11000000111000001101000 "
b11001000 :
b11001 C
#952
b11000000111010001101000 "
b10101001 :
b1101111 K
#953
b11010000111010001101000 "
b11011 C
#954
b10100101 :
b100101 C
b1110000 K
#955
b11010000111100001101000 "
b10010111 :
b10001 C
b1110101 K
#956
b11010000111100001110000 "
b1111000 :
#957
b11100000111100001110000 "
b11011 C
#958
b1111010 K
#959
b11100000111010001110000 "
b10100001 :
b1000 C
#960
b1111000 :
#961
b11110000111100001110000 "
b10 C
#962
b11110000111100001111000 "
b100101100 :
b1110110 K
#963
b11110000111110001111000 "
b10010 C
#964
b11010 :
b1010 C
b1111111 K
#965
b100101100 :
b0 C
#966
b0 :
#971
b11110000111110010000000 "
#973
b11110001000000010000000 "
b10 C
#974
b11110000 :
b10000000 K
#975
b11110000111110010000000 "
#976
b10110100 :
#978
b100000000111110010000000 "
b11110000 :
#979
b11110001000000010000000 "
#981
b100101100 :
#982
b10110100 :
#993
b11110001000010010000000 "
#995
b11110001000000010001000 "
b1011 C
#996
b11110001000000010000000 "
b10000010 :
b10000101 K
#997
b10010 C
#998
b100000001000000010000000 "
b11101010 :
b10 C
b10001001 K
#999
b10110100 :
b10000000 K
#1000
b0 C
#1001
b100000001000000001111000 "
b0 :
#1003
b11110001000000001111000 "
b10 C
#1004
b100000001000010010000000 "
b111100 :
#1005
b100000001000000010000000 "
#1006
b1111000 :
b1001 C
#1007
b11110001000000010000000 "
b0 C
b10000101 K
#1008
b0 :
b10000000 K
#1009
b11100001000000010000000 "
b10 C
#1010
b11100001000010010000000 "
b10110100 :
#1011
b11110001000000010000000 "
b10100 C
#1012
b11100 C
#1013
b11110001000010010000000 "
b10100000 :
b10 C
b10000101 K
#1014
b11110001000000010000000 "
b10110100 :
b10000000 K
#1015
b100000001000000010000000 "
b1011 C
#1016
b11110001000000010000000 "
b10000010 :
b10 C
b10000101 K
#1017
b100000001000000010000000 "
b10110100 :
b0 C
b10000000 K
#1018
b0 :
b10 C
#1019
b10110100 :
b0 C
#1020
b0 :
#1021
b100000001000010010000000 "
#1023
b100000001000000010000000 "
b1001 C
#1024
b11110001000000010000000 "
b1111000 :
b10000101 K
#1025
b100000000111110010000000 "
b0 C
#1026
b11110000111110010000000 "
b0 :
b10 C
b10000000 K
#1027
b11110001000000010000000 "
b10110100 :
#1028
b100000001000000010000000 "
b100101100 :
#1029
b11110001000010010000000 "
b11110000 :
#1030
b10110100 :
b0 C
#1031
b11110001000000010000000 "
b0 :
b1011 C
#1032
b10000010 :
b10000101 K
#1033
b11110001000010010000000 "
b10 C
#1034
b10110100 :
b10000000 K
#1035
b11110001000000010000000 "
b1011 C
#1036
b10000010 :
b10000101 K
#1037
b10 C
#1038
b11110001000000010001000 "
b10110100 :
b10000000 K
#1039
b11110001000010010000000 "
#1040
b10010 C
#1041
b11110001000000010000000 "
b11101010 :
b1011 C
b10001001 K
#1042
b10000010 :
b10000101 K
#1043
b100000001000000010001000 "
b10 C
#1044
b10110100 :
b10000000 K
#1045
b11110001000000010000000 "
b10000 C
#1046
b11110000 :
b10001001 K
#1047
b11110001000010010000000 "
b10 C
#1048
b10110100 :
b10000000 K
#1049
b11110001000010001111000 "
b1011 C
#1050
b10000010 :
b10000101 K
#1051
b11110000111110001111000 "
#1052
b11110001000000010000000 "
b1111000 :
#1053
b100000001000000010000000 "
b0 C
#1054
b0 :
b10 C
b1111111 K
#1055
b100000001000010001111000 "
b10110100 :
b0 C
b10000000 K
#1056
b0 :
#1057
b100000001000000001111000 "
b1011 C
#1058
b1101110 :
b10000101 K
#1059
b11110001000000010000000 "
b10 C
#1060
b100000001000010010000000 "
b111100 :
b10000000 K
#1061
b11110001000000010000000 "
#1062
b10110100 :
b1001 C
#1063
b1111000 :
b10 C
b10000101 K
#1064
b100000001000000010000000 "
b10110100 :
b10000000 K
#1066
b100000001000000001111000 "
b0 C
#1067
b11110001000000010000000 "
b0 :
#1068
b10 C
#1069
b111100 :
#1070
b11110001000000001111000 "
b10110100 :
#1071
b11110000111100001111000 "
#1073
b1111000 :
b1010 C
#1074
b100101100 :
b1111111 K
#1075
b11110000111110001111000 "
#1077
b11100000111010001110000 "
b0 C
#1078
b10110000101110001011000 "
b0 :
#1079
b10000000011100000111000 "
b10 C
