.Xil/Vivado-15804-DESKTOP-VHL3B3I/hw_ila_data_2/zip_work/waveform.vcd
$date
        2022-Sep-27 11:16:48
$end
$version
        Vivado v2019.2 (64-bit)
$end
$timescale
        1ps
$end
$scope module dut $end
$var reg 1 " protpg_inst/Y_data $end
$var reg 1 # protpg_inst/i_data_en_delay_4 $end
$var reg 1 $ protpg_inst/cor_data_1 $end
$var reg 1 % protpg_inst/cor_de_1 $end
$var reg 1 & protpg_inst/cor_data $end
$var reg 1 ' protpg_inst/cor_de $end
$var reg 1 ( _TRIGGER $end
$var reg 1 ) _WINDOW $end
$var reg 1 * _GAP $end
$upscope $end
$enddefinitions $end
#0
$dumpvars
0"
1#
0$
1%
0&
1'
0(
1)
0*
$end
#1117
0#
#1121
0%
#1125
0'
#1487
1#
#1491
1%
#1495
1'
#2767
0#
#2771
0%
#2775
0'
#3137
1#
#3141
1%
#3145
1'
#4417
0#
#4421
0%
#4425
0'
#4787
1#
#4791
1%
#4795
1'
#6067
0#
#6071
0%
#6075
0'
#6437
1#
#6441
1%
#6445
1'
#7717
0#
#7721
0%
#7725
0'
#8087
1#
#8091
1%
#8095
1'
#8192
1(
#9367
0#
#9371
0%
#9375
0'
#9737
1#
#9741
1%
#9745
1'
#11017
0#
#11021
0%
#11025
0'
#11387
1#
#11391
1%
#11395
1'
#12667
0#
#12671
0%
#12675
0'
#13037
1#
#13041
1%
#13045
1'
#14317
0#
#14321
0%
#14325
0'
#14687
1#
#14691
1%
#14695
1'
#15967
0#
#15971
0%
#15975
0'
#16337
1#
#16341
1%
#16345
1'
