.Xil/Vivado-23684-DESKTOP-VHL3B3I/hw_ila_data_1/zip_work/waveform.vcd
$date
        2022-Sep-19 12:14:00
$end
$version
        Vivado v2019.2 (64-bit)
$end
$timescale
        1ps
$end
$scope module dut $end
$var reg 24 " protpg_inst/data_in [23:0] $end
$var reg 9 : protpg_inst/hsv_h [8:0] $end
$var reg 8 C protpg_inst/hsv_s [7:0] $end
$var reg 8 K protpg_inst/hsv_v [7:0] $end
$var reg 1 S _TRIGGER $end
$var reg 1 T _WINDOW $end
$var reg 1 U _GAP $end
$upscope $end
$enddefinitions $end
#0
$dumpvars
b11010000111010001100000 "
b1000111 :
b100101 C
b1111010 K
0S
1T
0U
$end
#1
b1011001 :
b1110101 K
#4
b11010000111100001100000 "
#6
b11000000111100001100000 "
b101110 C
#7
b1100000 :
b1111010 K
#9
b1111000 :
#10
b11010000111100001100000 "
#12
b11000000111100001100000 "
#13
b1100000 :
#14
b11000000111010001100000 "
#15
b1111000 :
#16
b11010000111010001100000 "
b100101 C
#17
b1110101 K
#18
b11000000111010001100000 "
#19
b1011001 :
#20
b11000000111100001100000 "
#21
b1111000 :
#22
b101110 C
#23
b1111010 K
#28
b11010000111100001100000 "
#30
b11010000111010001100000 "
#31
b11010000111100001100000 "
b1100000 :
#32
b11100000111100001100000 "
b100101 C
#33
b1011001 :
b101110 C
b1110101 K
#34
b11010000111110001100000 "
b1100000 :
b1111010 K
#35
b1000111 :
#36
b11000001000000001100000 "
b110110 C
#37
b10110000111100001011000 "
b1100100 :
b1111111 K
#38
b11000000110110001010000 "
b111000 C
#39
b10100000110000001001000 "
b1111000 :
b1000001 C
b10000000 K
#40
b10010000110100001001000 "
b1000010 C
b1111010 K
#41
b1010011 :
b111101 C
b1101111 K
#42
b10010000110000001000000 "
b1100001 :
b1001111 C
b1100000 K
#43
b1111000 :
b1101010 K
#44
b10000000101110001000000 "
b1010101 C
#45
b10000000101100000111000 "
b1101000 :
b1100000 K
#46
b10000000101010000111000 "
b1010011 C
#47
b10000000101100000111000 "
b1111000 :
b1001100 C
b1011111 K
#48
b10010000101100000111000 "
b1110110 :
b1000010 C
b1011010 K
#49
b1001100 C
b1010101 K
#50
b10100000101110001000000 "
b1011010 K
#51
b1100010 :
#52
b10100000101110001001000 "
b1010011 C
#53
b10100000110000001001000 "
b1010110 :
b1011111 K
#54
b111011 C
#55
b10010000101110001001000 "
b1100000 :
b111101 C
#56
b10100000110110001001000 "
b1100001 :
b1100000 K
#57
b10110000111000001010000 "
b111011 C
#58
b11000000111000001011000 "
b1111000 :
b1010111 C
b1011111 K
#59
b11000000111010001011000 "
b1101010 :
b1000100 C
b1101111 K
#60
b11010000111010001011000 "
b1100110 :
b110000 C
b1110000 K
#61
b11010000111010001100000 "
b1011111 :
b111000 C
#62
b11010000111100001100000 "
b1100100 :
b1110101 K
#63
b1001111 :
b100101 C
#64
b11000000111010001100000 "
b1011001 :
b101110 C
#65
b11010000111010001100000 "
b1100000 :
b1111010 K
#66
b100101 C
#67
b1111000 :
b1110101 K
#68
b11010000111100001100000 "
b1011001 :
#70
b101110 C
#71
b1100000 :
b1111010 K
#78
b11010000111010001100000 "
#80
b11010000111100001100000 "
b100101 C
#81
b1011001 :
b1110101 K
#82
b101110 C
#83
b1100000 :
b1111010 K
#85
b11000000111100001100000 "
#88
b11010000111100001100000 "
b1111000 :
#91
b1100000 :
#92
b11000000111100001100000 "
#93
b11000000111010001100000 "
#94
b11010000111100001011000 "
#95
b11000000111100001011000 "
b1111000 :
b100101 C
#96
b11010000111100001011000 "
b1000001 C
b1110101 K
#97
b11010000111100001100000 "
b1010110 :
b1111010 K
#98
b1100111 :
#99
b1010110 :
b101110 C
#100
b1100000 :
#106
b11010000111010001100000 "
#108
b100101 C
#109
b11010000111100001100000 "
b1011001 :
b1110101 K
#111
b11010000111100001101000 "
b101110 C
#112
b1100000 :
b1111010 K
#113
b11011 C
#114
b1111000 :
#115
b11010000111100001100000 "
#117
b101110 C
#118
b1100000 :
#119
b11010000111100001101000 "
#121
b11011 C
#122
b1111000 :
#124
b11010000111100001100000 "
#126
b101110 C
#127
b11010000111100001101000 "
b1100000 :
#129
b11011 C
#130
b1111000 :
#138
b11010000111110001101000 "
#140
b11010000111100001101000 "
b100100 C
#141
b11010000111100001100000 "
b1111111 K
#142
b11010000111100001101000 "
b11011 C
#143
b11010000111010001101000 "
b101110 C
b1111010 K
#144
b11010000111100001101000 "
b1100000 :
b11011 C
#145
b1111000 :
b10001 C
#146
b11011 C
b1110101 K
#147
b11010000111100001100000 "
b1111010 K
#149
b11010000111110001100000 "
b101110 C
#150
b11010000111100001101000 "
b1100000 :
#151
b11010000111110001101000 "
b110110 C
#152
b1100100 :
b11011 C
b1111111 K
#153
b1111000 :
b100100 C
b1111010 K
#154
b11100000111100001101000 "
b1111111 K
#156
b11100000111010001101000 "
b11011 C
#157
b1001111 :
b1111010 K
#158
b11100000111100001101000 "
b10011 C
#159
b110101 :
b1110110 K
#160
b11011 C
#161
b1001111 :
b1111010 K
#162
b11010000111110001101000 "
#164
b11010000111100001101000 "
b100100 C
#165
b1111000 :
b1111111 K
#166
b11011 C
#167
b11010000111110001101000 "
b1111010 K
#169
b100100 C
#170
b1111111 K
#178
b11010000111110001100000 "
#179
b11010000111110001101000 "
#180
b110110 C
#181
b1100100 :
b100100 C
#182
b1111000 :
#184
b11100000111100001101000 "
#186
b11010000111100001101000 "
b11011 C
#187
b11010000111110001101000 "
b1001111 :
b1111010 K
#189
b1111000 :
b100100 C
#190
b1111111 K
#192
b11010000111110001110000 "
#194
b11100000111110001101000 "
#195
b10010110 :
#196
b11100000111100001101000 "
#197
b1011010 :
#198
b11011 C
#199
b1001111 :
b1111010 K
#200
b11100000111110001101000 "
#202
b11010000111110001101000 "
b100100 C
#203
b11010000111100001101000 "
b1011010 :
b1111111 K
#204
b11010000111110001101000 "
#205
b1111000 :
b11011 C
#206
b11100000111100001101000 "
b100100 C
b1111010 K
#207
b11100000111100001110000 "
b1111111 K
#208
b11011 C
#209
b1001111 :
b1000 C
b1111010 K
#210
b11100000111110001101000 "
b1111000 :
#212
b100100 C
#213
b1011010 :
b1111111 K
#216
b11100000111110001110000 "
#218
b10010 C
#219
b1111000 :
#220
b11100000111110001101000 "
#222
b11100000111110001110000 "
b100100 C
#223
b1011010 :
#224
b11100000111100001110000 "
b10010 C
#225
b11100000111110001110000 "
b1111000 :
#226
b11100000111100001110000 "
b1000 C
#227
b10010 C
b1111010 K
#228
b11110000111110001110000 "
b1000 C
b1111111 K
#229
b1111010 K
#230
b11100000111110001101000 "
b10010 C
#231
b111100 :
b1111111 K
#232
b100100 C
#233
b1011010 :
#234
b11110000111100001110000 "
#236
b11100000111100001110000 "
b10010 C
#237
b11110000111100001110000 "
b11010 :
#238
b11100000111110001110000 "
b1000 C
#239
b1111000 :
b10010 C
b1111010 K
#240
b11010 :
b1111111 K
#241
b1111000 :
#242
b11010000111110001110000 "
#244
b11100000111110001110000 "
b100100 C
#245
b10010110 :
#246
b11110000111110001110000 "
b10010 C
#247
b1111000 :
#248
b11100000111110001110000 "
#249
b111100 :
#251
b1111000 :
#252
b11110000111110001110000 "
#255
b11110000111100001110000 "
b111100 :
#256
b11110000111110001110000 "
#258
b11100000111110001110000 "
b11010 :
#259
b11100000111110001111000 "
b111100 :
#261
b11100000111110001110000 "
b1111000 :
#262
b11110000111110001110000 "
b10110100 :
#264
b11100000111110001110000 "
b1111000 :
#265
b111100 :
#267
b1111000 :
#269
b11110000111110001110000 "
#272
b11100000111110001101000 "
b111100 :
#274
b100100 C
#275
b11100000111110001110000 "
b1011010 :
#276
b11110000111110001110000 "
#277
b10010 C
#278
b1111000 :
#279
b111100 :
#281
b11110000111110001111000 "
#282
b11100000111110001111000 "
#283
b0 C
#284
b11110000111110001111000 "
b0 :
b10010 C
#285
b10110100 :
#286
b11110000111110001110000 "
b0 C
#287
b0 :
#288
b100000000111110001110000 "
b10010 C
#289
b111100 :
#290
b100000000111100001111000 "
b10100 C
#291
b110110 :
b10000000 K
#292
b11110000111100001111000 "
b1100 C
#293
b100000000111100001111000 "
b100110110 :
#294
b100000000111110001111000 "
b1010 C
#295
b100101100 :
b1100 C
b1111111 K
#296
b100110110 :
b10 C
b10000000 K
#297
b101101000 :
#298
b11110000111110001111000 "
#300
b0 C
#301
b11110000111110001110000 "
b0 :
b1111111 K
#302
b11110000111100001110000 "
#303
b10010 C
#304
b111100 :
#305
b11110000111100001101000 "
b11010 :
#306
b11100000111110001101000 "
#307
b11010000111010001100000 "
b100100 C
#308
b11000000110110001011000 "
b101011 :
#309
b11000000110100001010000 "
b1011010 :
b100101 C
#310
b11000000110100001011000 "
b1011001 :
b101110 C
b1110101 K
#311
b10110000110000001010000 "
b1011101 :
b111001 C
b1101111 K
#312
b10100000101100001001000 "
b1001011 :
b100100 C
b1101010 K
#313
b10010000101000001000000 "
b1010100 :
b100101 C
#314
b10000000011100001000000 "
b1010010 :
b110000 C
b1100000 K
#315
b10000000011010000111000 "
b1011001 :
b110011 C
b1011010 K
#316
b1100000010100000110000 "
b1010111 :
b11000 C
b1010000 K
#317
b10000000011100001000000 "
b100101100 :
b101100 C
b1000000 K
#318
b10110000110000001011000 "
b100110010 :
b111000 C
#319
b11110001000010001111000 "
b100101100 :
b11000 C
b110110 K
#320
b11100000111100001101000 "
b1101 C
b1000000 K
#321
b11100000111010001100000 "
b1111000 :
b1011 C
b1100000 K
#322
b11011 C
b10000101 K
#323
b1001111 :
b100111 C
b1111010 K
#324
b111000 :
b1110110 K
#326
b11100000111000001100000 "
#327
b11010000110110001011000 "
#328
b11010000110110001100000 "
#329
b11000000110010001011000 "
b101000 :
b101110 C
#330
b11000000101100001011000 "
b1000010 :
b11001 C
b1101111 K
#331
b10110000101000001010000 "
b1000111 :
#332
b10100000100110001001000 "
b1000010 :
b1100101 K
#333
b101100010 :
b11110 C
b1100100 K
#334
b10010000100110001001000 "
b101011110 :
b11100 C
b1011011 K
#335
b101000 :
b1010010 K
#336
b10010000101000001001000 "
b10011 C
#337
b1111000 :
b1001111 K
#338
b10010000100000001001000 "
b10110 C
#339
b10000000011100001000000 "
b1010000 K
#340
b10000000011100000111000 "
b11111 C
#341
b1110000011000000110000 "
b100101100 :
b11000 C
b1001001 K
#342
b1110000010110000110000 "
b1000000 K
#343
b100110110 :
b111100 C
#344
b1100000011000000110000 "
b101010000 :
b1000001 C
b111111 K
#345
b1100000010110000101000 "
b101001110 :
#346
b11100 C
#347
b1010000010110000101000 "
b100101100 :
b101010 C
b110110 K
#348
b1010000010110000110000 "
b1101 :
#349
b1010 C
#350
b1010000010110000101000 "
b1111000 :
b101010 C
b101111 K
#351
b1100000011010000110000 "
b11100011 :
b110110 K
#352
b1110000011100000110000 "
b1010 C
#353
b10000000011110000110000 "
b1111000 :
b100 C
b101111 K
#354
b1110000100000000110000 "
b100101100 :
b100100 C
b110110 K
#355
b11010 :
b101000 C
b111111 K
#356
b10000000100000000110000 "
b110110 :
b1000000 K
#357
b1000010 :
#358
b10000000100000000111000 "
#359
b111100 :
#360
b100 C
#364
b10000000100000000110000 "
#366
b101000 C
#367
b1110000011110000110000 "
#369
b10000000011110000110000 "
b100100 C
#370
b10000000011100000111000 "
b111111 K
#371
b101000 C
#372
b1110000011100000110000 "
b110110 :
b11000 C
b1000000 K
#373
b1110000011010000110000 "
b100110110 :
#374
b1110000011100000110000 "
b100100 C
#375
b1110000011010000110000 "
b11010 :
b101000 C
b111111 K
#376
b101100010 :
b100100 C
#377
b11010 :
b101000 C
#378
b1110000011000000110000 "
b101100010 :
#380
b1100000011000000110000 "
b111100 C
#381
b101010000 :
#382
b1010000011010000110000 "
b11100 C
#383
b1100000011110000111000 "
b100101100 :
b110110 K
#384
b1110000100010000111000 "
b101010 C
#385
b1110000100100001000000 "
b10111011 :
b100100 C
#386
b10000000100100001000000 "
b10110100 :
b10110 C
b111111 K
#387
b10010000100100001000000 "
b1111000 :
b100110 C
b1000101 K
#388
b1111101 :
b100010 C
b1001010 K
#389
b1111000 :
#390
b10010000100010001000000 "
b1000010 :
#392
b10000000100010001000000 "
b11111 C
#393
b10100000101000001010000 "
b100001 :
b1001001 K
#394
b10110000101100001011000 "
b10010 C
#395
b11000000110010001100000 "
b1111000 :
b110 C
b1000101 K
#396
b11010000110000001100000 "
b100101100 :
b10 C
b1010010 K
#397
b1011011 K
#398
b11010000110000001101000 "
b1111000 :
b11110 C
b1100101 K
#399
b11010000110010001101000 "
b101010110 :
b1101101 K
#401
b11010000110100001101000 "
b100101100 :
b10010 C
#402
b11100000110100001101000 "
#403
b11010000110010001100000 "
b111 C
#404
b11010000110010001011000 "
b11010 C
#405
b10110000101010001001000 "
b101011001 :
b10101 C
b1110110 K
#406
b10010000100000001000000 "
b110 :
b101010 C
b1101101 K
#407
b100001 :
b110010 C
#408
b101000 :
b11111 C
b1011011 K
#409
b101101000 :
b1001001 K
#410
b10010000011110001001000 "
#411
b10010000100000001001000 "
#412
b10100000100010001001000 "
b100011 C
#413
b10100000100100001001000 "
b100101100 :
b11111 C
#414
b10110000100110001001000 "
b101000 C
#415
b10110000100100001001000 "
b101010110 :
b11100 C
b1010010 K
#416
b10100000100100001001000 "
b110 :
b110010 C
#417
b10100 :
b1011011 K
#418
b10100000100110001000000 "
b11 :
b11100 C
#419
b110 :
b1010010 K
#420
b10100000100110001001000 "
b111000 C
#421
b10100000100100001000000 "
b110010 :
#422
b10100000100100001001000 "
b11100 C
#423
b101000 :
b111000 C
#424
b10100000100100001000000 "
b100001 :
b11100 C
#425
b110 :
#426
b10010000100100001000000 "
b111000 C
#427
b100001 :
#428
b10000000100010001000000 "
b100010 C
#429
b1000010 :
b1001010 K
#430
b10100000100000001000000 "
b10010 C
#431
b10010000100000001000000 "
b1111000 :
b1000101 K
#432
b10000000100000001000000 "
b111000 C
#433
b101101000 :
b11111 C
b1010010 K
#434
b1110000100000001001000 "
b0 C
b1001001 K
#435
b10000000100010001001000 "
b0 :
b1000000 K
#436
b10000000100000001010000 "
b100011 C
#437
b10010000100010001011000 "
b11101010 :
b11111 C
b1001001 K
#438
b10100000100100001010000 "
b11001111 :
b111000 C
#439
b11110000 :
b111101 C
b1010010 K
#440
b10100000100110001010000 "
b11111010 :
b11000 C
b1011011 K
#441
b100101100 :
b1010010 K
#442
b10100000100110001011000 "
b1001 C
#443
b10100000101000001011000 "
#444
b10110000100110001100000 "
b100001 C
#445
b11111111 :
b11110 C
b1011011 K
#446
b10100000101000001100000 "
b11111010 :
b110101 C
#447
b10110000101000001100000 "
b100010010 :
b1100100 K
#448
b10110000100110001100000 "
b110011 C
#449
b10110000101000001100000 "
b11110110 :
#450
b100010001 :
b110101 C
#451
b11000000101010001100000 "
b100010010 :
b110011 C
#452
b100010001 :
#453
b100110 C
#454
b100101100 :
#455
b11000000101100001100000 "
#457
b11001 C
#460
b11000000101110001100000 "
#462
b11000000101100001100000 "
b1100 C
#464
b11000000101100001101000 "
b11001 C
#466
b11010000101100001100000 "
b101100 C
#467
b100001111 :
b1101101 K
#469
b11010000101110001100000 "
b101001001 :
#470
b11010000101100001101000 "
#471
b100000 C
#472
b11010000101100001110000 "
b101010011 :
b101100 C
#473
b11010000101110001110000 "
b100101100 :
#474
b11010000110010001110000 "
b111100 C
#475
b11010000110100001111000 "
b100011000 :
b110001 C
b1110110 K
#476
b11100000110000001111000 "
b100010100 :
b100100 C
#477
b100010000111100010010000 "
b100001100 :
b101010 C
#478
b100100001000100010100000 "
b11111000 :
b111110 C
b1111111 K
#479
b101100001010100011000000 "
b100011010 :
b101010 C
#480
b101110001101100011010000 "
b100010101 :
b101000 C
b10010010 K
#481
b111000001111110011111000 "
b100000010 :
b11101 C
b10100100 K
#482
b111100001111110011111000 "
b100010000 :
b11111 C
b11000000 K
#483
b10100010 :
b11011 C
b11011010 K
#484
b111110001111110011111000 "
b10110100 :
b1001 C
b11111111 K
#486
b0 C
#487
b0 :
#515
b111110001111110011110000 "
#516
b111100001101110011101000 "
#517
b110110001100000011010000 "
b1001 C
#518
b110110001101000011011000 "
b111100 :
b10111 C
#519
b111000001101100011101000 "
b101000100 :
b11111 C
b11110110 K
#520
b111010001110000011110000 "
b101000000 :
b1100 C
b11011011 K
#521
b111100001110110011111000 "
b100101100 :
b10100 C
#522
b111110001111110011111000 "
b100001111 :
b10110 C
b11101101 K
#523
b100010011 :
b10000 C
b11110110 K
#524
b100001010 :
b0 C
b11111111 K
#525
b0 :
#530
b111100001111010011111000 "
#531
b111010001111000011111000 "
#532
b110110001100100011111000 "
b1010 C
#533
b110000001011010011100000 "
b11110110 :
b10010 C
#534
b101110001010010011100000 "
b11100110 :
b110101 C
#535
b101000001001000011001000 "
b100000011 :
b110100 C
#536
b100110001001000011000000 "
b11111110 :
b1000110 C
b11100100 K
#537
b100100001000010010111000 "
b100001000 :
b1001000 C
#538
b100100001000100010110000 "
b100000101 :
b1000000 C
b11001001 K
#539
b100010001000000010101000 "
b11111101 :
b1001101 C
b11000000 K
#540
b100010000111110010100000 "
b111101 C
b10111111 K
#541
b100000000111100010100000 "
b11111010 :
b1000010 C
b10110110 K
#542
b100000000111010010011000 "
b11111100 :
b111001 C
b10101101 K
#543
b100000000 :
b1000001 C
b10100100 K
#544
b11110000111000010011000 "
b11111000 :
b111110 C
#545
b11110000111000010010000 "
b100000001 :
b10011011 K
#546
b11100000111000010010000 "
b1000111 C
#547
b11100000110110010010000 "
b100000100 :
b111011 C
#548
b11100000110110010001000 "
b100001010 :
b10010010 K
#549
b11010000110110010001000 "
b11111010 :
b111101 C
#550
b11000000110100010000000 "
b11111100 :
b110000 C
#551
b100000000 :
b110100 C
b10001001 K
#552
b11000000110010010000000 "
b11101100 :
b111000 C
#553
b11100100 :
b10000000 K
#554
b11000000110000001111000 "
#555
b11101110 :
#556
b10110000110000001111000 "
b111110 C
#557
b10110000101110001111000 "
b11110111 :
b1111111 K
#558
b10110000101100001111000 "
b1001000 C
#559
b10100000101010001111000 "
b11101000 :
#560
b10110000101000001111000 "
b11101010 :
b1001010 C
#561
b10100000101000001111000 "
b11110001 :
b1011010 C
#562
b11101100 :
b1011110 C
#563
b11111110 :
#564
b10010000100110001111000 "
b11110010 :
#565
b10010000100110001110000 "
#566
b10010000100100001111000 "
b1101100 C
#567
b11101010 :
b1100001 C
#568
b10010000100010001111000 "
b11101000 :
b1101100 C
b1110110 K
#569
b10010000100010001110000 "
b11101111 :
b1111111 K
#570
b1110100 C
#571
b10010000100010001111000 "
b11110100 :
b1101010 C
#572
b10100000100010001111000 "
b1110110 K
#573
b10100000100100001111000 "
b1110100 C
#574
b10100000101000001111000 "
b1111111 K
#575
b11111101 :
b1101010 C
#576
b11111001 :
b1011110 C
#577
b10100000100110001110000 "
b11110010 :
#578
b10100000100000001110000 "
#579
b10010000011100001100000 "
b1010100 C
#580
b10000000011010001100000 "
b11110100 :
b1110101 C
b1110110 K
#581
b10000000011010001011000 "
b100000100 :
b1101011 C
#582
b100000101 :
b1111000 C
b1100100 K
#583
b1110000011000001010000 "
b11111110 :
b1101010 C
#584
b100000001 :
b1011011 K
#585
b1100000011000001010000 "
#586
b1110000011000001001000 "
b100001010 :
b1010010 K
#588
b1100000011000001001000 "
b11111010 :
b1010111 C
#589
b1100000010110001001000 "
b100010100 :
b1001001 K
#591
b11111110 :
b1011011 C
#592
b100010001000010010011000 "
b100000000 :
#594
b100100 C
#595
b11111010 :
b10011011 K
#969
b100000001000010010010000 "
#971
b11111 C
#972
b100000001000000010010000 "
b11100000 :
b10010010 K
#973
b100010001000010010011000 "
#975
b11110000 :
b100100 C
#976
b100010001000000010011000 "
b11111010 :
b10011011 K
#978
b100010001000010010011000 "
b101100 C
#979
b100000100 :
#980
b100100 C
#981
b11111010 :
#982
b100010001000010010010000 "
#984
b10110 C
#985
b100000010 :
b10010010 K
#988
b100010001000000010011000 "
#990
b100100001000000010011000 "
b101100 C
#991
b100010001000000010011000 "
b100000100 :
b10011011 K
#993
b100011000 :
#994
b100010001000000010010000 "
b100000100 :
#996
b11111 C
#997
b100001110 :
b10010010 K
#1010
b100000001000000010010000 "
#1012
b100010001000000010010000 "
#1013
b11110000 :
#1014
b100100001000000010001000 "
#1015
b100001110 :
#1016
b100010001000000010001000 "
#1017
b101001010 :
#1018
b100010001000010010001000 "
b10000 C
#1019
b100101100 :
b10001001 K
#1020
b100010001000010010010000 "
b111 C
#1021
b100010001000000010001000 "
#1022
b100010001000010010010000 "
b10110 C
#1023
b100000010 :
b10000 C
b10010010 K
#1024
b100010001000000010010000 "
b100101100 :
b10110 C
b10001001 K
#1025
b100000010 :
b10010010 K
#1026
b11111 C
#1027
b100001110 :
#1030
b100000001000010010001000 "
#1031
b100000001000000010001000 "
#1032
b100010001000000010010000 "
b10000 C
#1033
b100010001000010010010000 "
b11001111 :
b10001001 K
#1034
b100010000111110010010000 "
b11110000 :
b11111 C
#1035
b100001110 :
b10110 C
b10010010 K
#1036
b100000010 :
b100001 C
#1037
b100010001000000010010000 "
b100001111 :
#1039
b100100001000000010010000 "
b11111 C
#1040
b100100001000010010010000 "
b100001110 :
#1041
b100100001000100010010000 "
#1042
b100110001001010010011000 "
b100101100 :
b10110 C
#1043
b100010001000100010001000 "
b1110 C
#1044
b100000000111110010000000 "
b1001 C
#1045
b11100000110110001111000 "
b1 C
b10011011 K
#1046
b11110000111000001111000 "
b1111000 :
b10 C
b10001010 K
#1047
b11100000110110001110000 "
b100101100 :
b100000 C
b10000000 K
#1048
b100001010 :
b11110 C
b1111111 K
#1049
b11100000110010001110000 "
b100101100 :
b1111 C
#1050
b11010000110010001101000 "
b1110110 K
#1051
b11000000110000001101000 "
b100100 C
#1052
b11010000110100001101000 "
b10010 C
#1053
b11110 C
b1101101 K
#1054
b11010000110110001101000 "
b100000010 :
b111 C
#1055
b11100000110110001110000 "
b100101100 :
#1056
b100 C
#1057
b11100000111000001111000 "
b1111000 :
b1111 C
b1101111 K
#1058
b100101100 :
b1110110 K
#1059
b11100000111010001111000 "
b11110 C
#1060
b11110000111000010000000 "
b100001000 :
b1111111 K
#1061
b11110000111010010000000 "
b10100 C
#1062
b100000000111110010001000 "
b11110110 :
b100000 C
#1063
b100000001000000010001000 "
b100101000 :
b10110 C
b10000000 K
#1064
b100010000111110010001000 "
b100100110 :
b10010 C
#1065
b11110110 :
b10000 C
b10001001 K
#1066
b100000001000000010001000 "
b11110000 :
b10010 C
#1067
b100010001000000010001000 "
b100101100 :
#1068
b10000 C
#1069
b11110000 :
#1070
b100000001000010010001000 "
b100101100 :
#1073
b11001111 :
#1075
b100000001000000010001000 "
#1078
b100010001000000010001000 "
b11110000 :
#1081
b100101100 :
#1086
b100000001000000010001000 "
#1089
b100010001000000010001000 "
b11110000 :
#1091
b100010001000010010001000 "
#1092
b100000001000010010001000 "
b100101100 :
#1093
b100000001000010010000000 "
b111 C
#1094
b100000001000000010001000 "
b10000 C
#1095
b11001111 :
b1001 C
#1096
b1111000 :
b10000 C
b10000101 K
#1097
b11110000 :
b10001001 K
#1099
b100000001000010010001000 "
#1100
b100000001000000010001000 "
#1102
b11001111 :
#1103
b11110000 :
#1112
b100000001000000010000000 "
#1114
b100000001000000010001000 "
b0 C
#1115
b11110000111110010000000 "
b0 :
b10000000 K
#1116
b100000000111110010000000 "
b10000 C
#1117
b100000001000000010000000 "
b11110000 :
b10 C
b10001001 K
#1118
b100000000111110010000000 "
b10000000 K
#1119
b100010001000000010001000 "
b100101100 :
b0 C
#1120
b100000001000000010001000 "
b0 :
b10 C
#1121
b100101100 :
b10000 C
#1122
b10001001 K
#1123
b11110000 :
#1124
b100000001000000010000000 "
#1126
b0 C
#1127
b0 :
b10000000 K
#1128
b100000001000000010001000 "
#1129
b100000001000000010000000 "
#1130
b100000000111110010000000 "
b10000 C
#1131
b11110000 :
b0 C
b10001001 K
#1132
b0 :
b10 C
b10000000 K
#1133
b100010000111110010000000 "
b100101100 :
#1134
b100010001000000010000000 "
#1135
b10010 C
#1136
b100000001000000010000000 "
b101100010 :
b10000 C
b10001001 K
#1137
b101101000 :
#1138
b100000001000000010001000 "
b0 C
#1139
b100000001000000010000000 "
b0 :
b10000000 K
#1140
b100000000111110010000000 "
b10000 C
#1141
b11110000 :
b0 C
b10001001 K
#1142
b0 :
b10 C
b10000000 K
#1143
b100101100 :
#1144
b100000001000000010000000 "
#1146
b100000000111110010000000 "
b0 C
#1147
b0 :
#1148
b10 C
#1149
b100101100 :
#1156
b100000001000000010000000 "
#1158
b11110001000000010000000 "
b0 C
#1159
b0 :
#1160
b10 C
#1161
b10110100 :
#1162
b100000000111110010000000 "
#1164
b11110000111110010000000 "
#1165
b11110000111110001111000 "
b100101100 :
#1166
b100000000111110010000000 "
#1167
b11110000 :
b0 C
#1168
b0 :
b10 C
b1111111 K
#1169
b100101100 :
b10000000 K
#1172
b100000001000000010000000 "
#1173
b100000000111110010000000 "
#1174
b100000001000010010000000 "
b0 C
#1175
b11110001000000001111000 "
b0 :
b10 C
#1176
b100000001000000001111000 "
b100101100 :
b1001 C
#1177
b1111000 :
b10 C
b10000101 K
#1178
b100000000111110010000000 "
b10000000 K
#1179
b111100 :
#1180
b100010000111110010000000 "
#1181
b100000000111110010000000 "
b100101100 :
#1182
b100000001000000001111000 "
b10010 C
#1183
b101100010 :
b10 C
b10001001 K
#1184
b100101100 :
b10000000 K
#1185
b111100 :
#1186
b11110000111110001111000 "
#1187
b100000001000000010000000 "
#1188
b11110001000000010000000 "
b0 C
#1189
b11110000111110010000000 "
b0 :
b1111111 K
#1190
b10 C
b10000000 K
#1191
b11110000111100010000000 "
b10110100 :
#1192
b11110000111110001111000 "
b11110000 :
#1193
b1100 C
#1194
b100000000111110001111000 "
b100100010 :
b0 C
#1195
b100000001000000001111000 "
b0 :
b1111111 K
#1196
b11110001000000001111000 "
b10 C
#1197
b11110000111110001111000 "
b101101000 :
b10000000 K
#1198
b100000000111110001111000 "
b111100 :
#1199
b1111000 :
b0 C
#1200
b0 :
b10 C
b1111111 K
#1201
b101101000 :
b10000000 K
#1204
b11110000111110001111000 "
#1206
b0 C
#1207
b0 :
b1111111 K
#1208
b11110000111100001111000 "
#1209
b11110000111110001111000 "
#1210
b1010 C
#1211
b100101100 :
b0 C
#1212
b0 :
#1214
b100000000111110001111000 "
#1216
b11110000111110001111000 "
b10 C
#1217
b101101000 :
b10000000 K
#1218
b11110000111110001110000 "
b0 C
#1219
b0 :
b1111111 K
#1220
b100000000111110001111000 "
b10010 C
#1221
b111100 :
#1222
b100000000111100001111000 "
b10 C
#1223
b101101000 :
b10000000 K
#1224
b11110000111110001111000 "
b1100 C
#1225
b100110110 :
#1226
b11100001000000001111000 "
b0 C
#1227
b0 :
b1111111 K
#1228
b11110000111110001111000 "
b10100 C
#1229
b10101110 :
b10000000 K
#1230
b100000000111110001111000 "
b0 C
#1231
b0 :
b1111111 K
#1232
b11110000111110001111000 "
b10 C
#1233
b101101000 :
b10000000 K
#1234
b11110001000000001110000 "
b0 C
#1235
b11100000111110001110000 "
b0 :
b1111111 K
#1236
b11110000111110001110000 "
b10100 C
#1237
b1000010 :
b10010 C
b10000000 K
#1238
b11110000111100001110000 "
b1111000 :
b1111111 K
#1239
b100000000111110001111000 "
b111100 :
#1240
b100000000111100001111000 "
#1241
b11010 :
b10 C
#1242
b11110000111100001111000 "
b101101000 :
b1100 C
b10000000 K
#1243
b100000000111100001111000 "
b100110110 :
#1244
b11110000111110001111000 "
b1010 C
#1245
b100101100 :
b1100 C
b1111111 K
#1246
b11110001000000001110000 "
b100110110 :
b0 C
b10000000 K
#1247
b11100000111110001110000 "
b0 :
b1111111 K
#1248
b11110000111110001111000 "
b10100 C
#1249
b1000010 :
b10010 C
b10000000 K
#1250
b11110000111100001111000 "
b1111000 :
b0 C
b1111111 K
#1251
b0 :
#1252
b11110000111110001110000 "
b1010 C
#1253
b11110000111110001111000 "
b100101100 :
#1254
b10010 C
#1255
b111100 :
b0 C
#1256
b11110000111110001110000 "
b0 :
#1257
b11100000111110001110000 "
#1258
b10010 C
#1259
b11100000111100001110000 "
b111100 :
#1260
b11010000111100001110000 "
b1111000 :
#1261
b1000 C
#1262
b11100000111100001110000 "
b11011 C
b1111010 K
#1263
b10100001 :
#1264
b1000 C
#1265
b1111000 :
#1268
b11110000111110001110000 "
#1270
b11100000111110001110000 "
b10010 C
#1271
b11110000111110001110000 "
b111100 :
b1111111 K
#1272
b11100000111110001110000 "
#1273
b1111000 :
#1274
b11110000111100001110000 "
b111100 :
#1275
b1111000 :
#1277
b11010 :
#1278
b11100000111110001110000 "
#1281
b1111000 :
#1283
b11100000111100001110000 "
#1285
b1000 C
#1286
b1111010 K
#1287
b11110000111100001110000 "
#1288
b11100000111110001110000 "
#1289
b10010 C
#1290
b11110000111110001110000 "
b11010 :
b1111111 K
#1291
b11110000111100001110000 "
b1111000 :
#1293
b11110000111010001110000 "
b111100 :
#1294
b11010 :
#1295
b11110000111010001101000 "
b10100 C
#1296
b11100000111010001101000 "
b101100010 :
#1297
b100100 C
#1298
b11100000111100001110000 "
b11010 :
b10011 C
#1299
b110101 :
b1110110 K
#1300
b1000 C
#1301
b11100000111110001110000 "
b1111000 :
b1111010 K
#1303
b10010 C
#1304
b1111111 K
#1306
b11110000111100001110000 "
#1308
b11100000111100001110000 "
#1309
b11100000111100001101000 "
b11010 :
#1310
b11010000111100001101000 "
b1000 C
#1311
b1111000 :
b11011 C
b1111010 K
#1312
b11100000111100001101000 "
b1001111 :
#1313
b1111000 :
#1315
b1001111 :
#1316
b11100000111100001110000 "
#1317
b11110000111110001110000 "
#1318
b1000 C
#1319
b11100000111100001110000 "
b1111000 :
b10010 C
